[
  {
    "q": "The tournament took place during the",
    "ans": [
      { "c": "prehistoric times." },
      { "c": "reformation." },
      { "c": "middle ages.", "r": true }
    ]
  },
  {
    "q": "The tournament was held so nobles could show off their",
    "ans": [
      { "c": "fine clothes." },
      { "c": "best livestock." },
      { "c": "fighting skills.", "r": true  }
    ]
  },
  {
    "q": "The place where the tournaments were held was called",
    "ans": [
      { "c": "lists.", "r": true },
      { "c": "galleries." },
      { "c": "oblongs." }
    ]
  },
  {
    "q": "Tournaments were held on level grassy fields.",
    "ans": [
      { "c": "Yes", "r": true },
      { "c": "No" }
    ]
  },
  {
    "q": "The tournament was a type of contest.",
    "ans": [
      { "c": "Yes", "r": true },
      { "c": "No" }
    ]
  },
  {
    "q": "Choose the best title for this passage.",
    "ans": [
      { "c": "Fake Battles", "r": true },
      { "c": "Polished Shields" },
      { "c": "Rich Soil"  }
    ]
  },
  {
    "q": "What is the main thought of this selection ?",
    "ans": [
      { "c": "King Arthur had many able knights to serve him." },
      { "c": "Tournaments took place in the middle ages.", "r": true },
      { "c": "Rich canopies and bright banners were seen at the tournament.", "r": true  }
    ]
  },
  {
    "q": "This passage leads us to believe that",
    "ans": [
      { "c": "tournaments were not very exciting." },
      { "c": "kings were elected, not appointed." },
      { "c": "no one was killed in a tournament.", "r": true  }
    ]
  },
  {
    "q": "An oblong space looks like a",
    "ans": [
      { "c": "square." },
      { "c": "triangle." },
      { "c": "rectangle.", "r": true  }
    ]
  },
  {
    "q": "Colored ________ were seen at the tournaments.",
    "ans": [
      { "c": "banners", "r": true },
      { "c": "bands" },
      { "c": "brings"  }
    ]
  },
  {
    "q": "Find the word below that rhymes with “could",
    "ans": [
      { "c": "Called" },
      { "c": "Wood", "r": true },
      { "c": "Shout"  }
    ]
  },
  {
    "q": "With polished shields, rich canopies and bright banners, the tournaments looked",
    "ans": [
      { "c": "colorful.", "r": true },
      { "c": "organized" },
      { "c": "sunny"  }
    ]
  }
]